<?xml version="1.0" encoding="UTF-8" standalone="no"?>
<!-- Created with Inkscape (http://www.inkscape.org/) -->

<svg
   xmlns:dc="http://purl.org/dc/elements/1.1/"
   xmlns:cc="http://creativecommons.org/ns#"
   xmlns:rdf="http://www.w3.org/1999/02/22-rdf-syntax-ns#"
   xmlns:svg="http://www.w3.org/2000/svg"
   xmlns="http://www.w3.org/2000/svg"
   xmlns:xlink="http://www.w3.org/1999/xlink"
   xmlns:sodipodi="http://sodipodi.sourceforge.net/DTD/sodipodi-0.dtd"
   xmlns:inkscape="http://www.inkscape.org/namespaces/inkscape"
   width="200"
   height="200"
   id="svg2"
   version="1.1"
   inkscape:version="0.48.5 r10040"
   sodipodi:docname="addbutton_clicked.svg"
   inkscape:export-filename="C:\Users\12er\Desktop\addbutton_clicked.png"
   inkscape:export-xdpi="7.1999998"
   inkscape:export-ydpi="7.1999998">
  <defs
     id="defs4">
    <linearGradient
       id="linearGradient4155">
      <stop
         style="stop-color:#35b5ff;stop-opacity:0.6936937;"
         offset="0"
         id="stop4157" />
      <stop
         style="stop-color:#b4e3fd;stop-opacity:1;"
         offset="1"
         id="stop4159" />
    </linearGradient>
    <linearGradient
       id="linearGradient3815">
      <stop
         id="stop3817"
         offset="0"
         style="stop-color:#35b5ff;stop-opacity:1;" />
      <stop
         id="stop3819"
         offset="1"
         style="stop-color:#b4e3fd;stop-opacity:1;" />
    </linearGradient>
    <linearGradient
       id="linearGradient3764">
      <stop
         style="stop-color:#000000;stop-opacity:1;"
         offset="0"
         id="stop3766" />
      <stop
         style="stop-color:#000000;stop-opacity:0;"
         offset="1"
         id="stop3768" />
    </linearGradient>
    <linearGradient
       id="linearGradient3752">
      <stop
         style="stop-color:#daf4fb;stop-opacity:1;"
         offset="0"
         id="stop3754" />
      <stop
         style="stop-color:#96cae8;stop-opacity:1;"
         offset="1"
         id="stop3756" />
    </linearGradient>
    <linearGradient
       inkscape:collect="always"
       xlink:href="#linearGradient3752"
       id="linearGradient3770"
       x1="40.411175"
       y1="946.04364"
       x2="65.14975"
       y2="968.26697"
       gradientUnits="userSpaceOnUse"
       gradientTransform="translate(-103.58779,350.6066)" />
    <linearGradient
       inkscape:collect="always"
       xlink:href="#linearGradient3752-7"
       id="linearGradient3770-1"
       x1="26.269041"
       y1="940.99286"
       x2="116.16245"
       y2="1015.2391"
       gradientUnits="userSpaceOnUse" />
    <linearGradient
       id="linearGradient3752-7">
      <stop
         style="stop-color:#7dd3ec;stop-opacity:1;"
         offset="0"
         id="stop3754-4" />
      <stop
         style="stop-color:#2882b6;stop-opacity:1;"
         offset="1"
         id="stop3756-0" />
    </linearGradient>
    <linearGradient
       inkscape:collect="always"
       xlink:href="#linearGradient3815"
       id="linearGradient3811"
       gradientUnits="userSpaceOnUse"
       gradientTransform="translate(-273.11245,417.72212)"
       x1="73.241135"
       y1="962.20605"
       x2="116.16245"
       y2="1015.2391" />
    <linearGradient
       inkscape:collect="always"
       xlink:href="#linearGradient3752-8"
       id="linearGradient3770-4"
       x1="40.411175"
       y1="946.04364"
       x2="65.14975"
       y2="968.26697"
       gradientUnits="userSpaceOnUse"
       gradientTransform="translate(-179.30208,10.606602)" />
    <linearGradient
       id="linearGradient3752-8">
      <stop
         style="stop-color:#daf4fb;stop-opacity:1;"
         offset="0"
         id="stop3754-8" />
      <stop
         style="stop-color:#96cae8;stop-opacity:1;"
         offset="1"
         id="stop3756-2" />
    </linearGradient>
    <linearGradient
       y2="959.79651"
       x2="100.20619"
       y1="1023.2761"
       x1="26.85733"
       gradientTransform="matrix(1.0205782,0,0,1.0378811,-6.4244347,-45.472703)"
       gradientUnits="userSpaceOnUse"
       id="linearGradient3836"
       xlink:href="#linearGradient4155"
       inkscape:collect="always" />
    <linearGradient
       y2="954.62988"
       x2="51.007614"
       y1="1015.2391"
       x1="115.16246"
       gradientTransform="translate(2.0203124,-3.2829631)"
       gradientUnits="userSpaceOnUse"
       id="linearGradient3836-5"
       xlink:href="#linearGradient3815-5"
       inkscape:collect="always" />
    <linearGradient
       id="linearGradient3815-5">
      <stop
         id="stop3817-1"
         offset="0"
         style="stop-color:#35b5ff;stop-opacity:1;" />
      <stop
         id="stop3819-7"
         offset="1"
         style="stop-color:#b4e3fd;stop-opacity:1;" />
    </linearGradient>
    <linearGradient
       inkscape:collect="always"
       xlink:href="#linearGradient3815-5-2"
       id="linearGradient3912-5"
       gradientUnits="userSpaceOnUse"
       gradientTransform="translate(-61.619299,-659.17054)"
       x1="115.16246"
       y1="1015.2391"
       x2="51.007614"
       y2="954.62988" />
    <linearGradient
       id="linearGradient3815-5-2">
      <stop
         id="stop3817-1-7"
         offset="0"
         style="stop-color:#35b5ff;stop-opacity:1;" />
      <stop
         id="stop3819-7-6"
         offset="1"
         style="stop-color:#b4e3fd;stop-opacity:1;" />
    </linearGradient>
    <linearGradient
       inkscape:collect="always"
       xlink:href="#linearGradient3815-5"
       id="linearGradient3957"
       gradientUnits="userSpaceOnUse"
       gradientTransform="translate(-176.27161,165.91754)"
       x1="115.16246"
       y1="1015.2391"
       x2="51.007614"
       y2="954.62988" />
    <linearGradient
       y2="954.62988"
       x2="51.007614"
       y1="1015.2391"
       x1="115.16246"
       gradientTransform="translate(2.0203124,-3.2829631)"
       gradientUnits="userSpaceOnUse"
       id="linearGradient3836-4"
       xlink:href="#linearGradient3815-2"
       inkscape:collect="always" />
    <linearGradient
       id="linearGradient3815-2">
      <stop
         id="stop3817-3"
         offset="0"
         style="stop-color:#35b5ff;stop-opacity:1;" />
      <stop
         id="stop3819-2"
         offset="1"
         style="stop-color:#b4e3fd;stop-opacity:1;" />
    </linearGradient>
    <linearGradient
       inkscape:collect="always"
       xlink:href="#linearGradient3815-2"
       id="linearGradient3996"
       gradientUnits="userSpaceOnUse"
       gradientTransform="translate(80.023585,123.68399)"
       x1="84.857887"
       y1="998.57153"
       x2="68.68528"
       y2="979.88367" />
    <linearGradient
       inkscape:collect="always"
       xlink:href="#linearGradient3815-2-6"
       id="linearGradient3996-1"
       gradientUnits="userSpaceOnUse"
       gradientTransform="translate(-252.72008,172.6335)"
       x1="84.857887"
       y1="998.57153"
       x2="68.68528"
       y2="979.88367" />
    <linearGradient
       id="linearGradient3815-2-6">
      <stop
         id="stop3817-3-8"
         offset="0"
         style="stop-color:#35b5ff;stop-opacity:1;" />
      <stop
         id="stop3819-2-5"
         offset="1"
         style="stop-color:#b4e3fd;stop-opacity:1;" />
    </linearGradient>
    <linearGradient
       y2="954.62988"
       x2="51.007614"
       y1="1015.2391"
       x1="115.16246"
       gradientTransform="translate(2.0203124,-3.2829631)"
       gradientUnits="userSpaceOnUse"
       id="linearGradient3836-1"
       xlink:href="#linearGradient3815-8"
       inkscape:collect="always" />
    <linearGradient
       id="linearGradient3815-8">
      <stop
         id="stop3817-9"
         offset="0"
         style="stop-color:#35b5ff;stop-opacity:1;" />
      <stop
         id="stop3819-27"
         offset="1"
         style="stop-color:#b4e3fd;stop-opacity:1;" />
    </linearGradient>
    <linearGradient
       y2="954.62988"
       x2="51.007614"
       y1="1015.2391"
       x1="115.16246"
       gradientTransform="translate(166.77483,173.34783)"
       gradientUnits="userSpaceOnUse"
       id="linearGradient4052"
       xlink:href="#linearGradient3815-8"
       inkscape:collect="always" />
    <linearGradient
       y2="954.62988"
       x2="51.007614"
       y1="1015.2391"
       x1="115.16246"
       gradientTransform="matrix(1.2005977,0,0,1.170298,-2.7104698,-190.20578)"
       gradientUnits="userSpaceOnUse"
       id="linearGradient3836-43"
       xlink:href="#linearGradient3815-1"
       inkscape:collect="always" />
    <linearGradient
       id="linearGradient3815-1">
      <stop
         id="stop3817-2"
         offset="0"
         style="stop-color:#35b5ff;stop-opacity:1;" />
      <stop
         id="stop3819-3"
         offset="1"
         style="stop-color:#b4e3fd;stop-opacity:1;" />
    </linearGradient>
    <linearGradient
       y2="954.62988"
       x2="51.007614"
       y1="1015.2391"
       x1="115.16246"
       gradientTransform="matrix(1.2005977,0,0,1.170298,-28.127836,-5.895745)"
       gradientUnits="userSpaceOnUse"
       id="linearGradient4100"
       xlink:href="#linearGradient3815-1"
       inkscape:collect="always" />
    <linearGradient
       y2="954.62988"
       x2="51.007614"
       y1="1015.2391"
       x1="115.16246"
       gradientTransform="matrix(1.175523,0,0,1.2591491,-8.1461331,-282.04891)"
       gradientUnits="userSpaceOnUse"
       id="linearGradient3836-41"
       xlink:href="#linearGradient3815-13"
       inkscape:collect="always" />
    <linearGradient
       id="linearGradient3815-13">
      <stop
         id="stop3817-8"
         offset="0"
         style="stop-color:#35b5ff;stop-opacity:1;" />
      <stop
         id="stop3819-74"
         offset="1"
         style="stop-color:#b4e3fd;stop-opacity:1;" />
    </linearGradient>
    <linearGradient
       y2="945.4447"
       x2="115.97497"
       y1="1007.202"
       x1="64.702385"
       gradientTransform="matrix(0.73437,0,0,0.77693547,83.815394,147.05123)"
       gradientUnits="userSpaceOnUse"
       id="linearGradient4134"
       xlink:href="#linearGradient3815-13"
       inkscape:collect="always" />
    <filter
       inkscape:collect="always"
       id="filter3815"
       x="-0.28803585"
       width="1.5760717"
       y="-0.28796416"
       height="1.5759283">
      <feGaussianBlur
         inkscape:collect="always"
         stdDeviation="14.983115"
         id="feGaussianBlur3817" />
    </filter>
    <filter
       inkscape:collect="always"
       id="filter3816"
       x="-0.39834506"
       width="1.7966901"
       y="-0.39368238"
       height="1.7873648">
      <feGaussianBlur
         inkscape:collect="always"
         stdDeviation="21.485704"
         id="feGaussianBlur3818" />
    </filter>
  </defs>
  <sodipodi:namedview
     id="base"
     pagecolor="#ffffff"
     bordercolor="#666666"
     borderopacity="1.0"
     inkscape:pageopacity="0.0"
     inkscape:pageshadow="2"
     inkscape:zoom="1.979899"
     inkscape:cx="80.023534"
     inkscape:cy="131.34053"
     inkscape:document-units="px"
     inkscape:current-layer="layer1"
     showgrid="false"
     inkscape:window-width="1359"
     inkscape:window-height="882"
     inkscape:window-x="281"
     inkscape:window-y="49"
     inkscape:window-maximized="0" />
  <metadata
     id="metadata7">
    <rdf:RDF>
      <cc:Work
         rdf:about="">
        <dc:format>image/svg+xml</dc:format>
        <dc:type
           rdf:resource="http://purl.org/dc/dcmitype/StillImage" />
        <dc:title></dc:title>
      </cc:Work>
    </rdf:RDF>
  </metadata>
  <g
     inkscape:label="Layer 1"
     inkscape:groupmode="layer"
     id="layer1"
     transform="translate(0,-852.3622)">
    <path
       style="fill:#0afdfa;fill-opacity:1;stroke:none;filter:url(#filter3815)"
       d="m 89.29881,890.13657 0,50.2187 20.28125,0 0,-50.2187 -20.28125,0 z m -53,52.1875 0,20.2812 50.5625,0 0,-20.2812 -50.5625,0 z m 75.5625,0 0,20.2812 49.28125,0 0,-20.2812 -49.28125,0 z m -22.5625,22.6562 0,50.03113 20.28125,0 0,-50.03113 -20.28125,0 z"
       id="rect3812-9"
       inkscape:connector-curvature="0" />
    <rect
       style="fill:#0afdfa;fill-opacity:1;stroke:none;filter:url(#filter3816)"
       id="rect3813"
       width="129.4498"
       height="130.98297"
       x="34.587433"
       y="886.87201" />
    <path
       style="fill:#ffffff;fill-opacity:1;stroke:#ffffff;stroke-width:1.75331414000000010;stroke-miterlimit:4;stroke-opacity:1;stroke-dasharray:none;stroke-dashoffset:0"
       d="M 89.875 37.65625 L 89.875 89.84375 L 36.875 89.84375 L 36.875 110.125 L 89.875 110.125 L 89.875 162.53125 L 110.15625 162.53125 L 110.15625 110.125 L 161.71875 110.125 L 161.71875 89.84375 L 110.15625 89.84375 L 110.15625 37.65625 L 89.875 37.65625 z "
       id="rect3812"
       transform="translate(0,852.3622)" />
  </g>
</svg>
