<?xml version="1.0" encoding="UTF-8" standalone="no"?>
<!-- Created with Inkscape (http://www.inkscape.org/) -->

<svg
   xmlns:dc="http://purl.org/dc/elements/1.1/"
   xmlns:cc="http://creativecommons.org/ns#"
   xmlns:rdf="http://www.w3.org/1999/02/22-rdf-syntax-ns#"
   xmlns:svg="http://www.w3.org/2000/svg"
   xmlns="http://www.w3.org/2000/svg"
   xmlns:xlink="http://www.w3.org/1999/xlink"
   xmlns:sodipodi="http://sodipodi.sourceforge.net/DTD/sodipodi-0.dtd"
   xmlns:inkscape="http://www.inkscape.org/namespaces/inkscape"
   width="200"
   height="200"
   id="svg2"
   version="1.1"
   inkscape:version="0.48.5 r10040"
   sodipodi:docname="closebutton_unfocused.svg"
   inkscape:export-filename="C:\Users\12er\Desktop\closebutton_unfocused.png"
   inkscape:export-xdpi="7.1999998"
   inkscape:export-ydpi="7.1999998">
  <defs
     id="defs4">
    <linearGradient
       id="linearGradient4155">
      <stop
         style="stop-color:#35b5ff;stop-opacity:0.6936937;"
         offset="0"
         id="stop4157" />
      <stop
         style="stop-color:#b4e3fd;stop-opacity:1;"
         offset="1"
         id="stop4159" />
    </linearGradient>
    <linearGradient
       id="linearGradient3815">
      <stop
         id="stop3817"
         offset="0"
         style="stop-color:#35b5ff;stop-opacity:1;" />
      <stop
         id="stop3819"
         offset="1"
         style="stop-color:#b4e3fd;stop-opacity:1;" />
    </linearGradient>
    <linearGradient
       id="linearGradient3764">
      <stop
         style="stop-color:#000000;stop-opacity:1;"
         offset="0"
         id="stop3766" />
      <stop
         style="stop-color:#000000;stop-opacity:0;"
         offset="1"
         id="stop3768" />
    </linearGradient>
    <linearGradient
       id="linearGradient3752">
      <stop
         style="stop-color:#daf4fb;stop-opacity:1;"
         offset="0"
         id="stop3754" />
      <stop
         style="stop-color:#96cae8;stop-opacity:1;"
         offset="1"
         id="stop3756" />
    </linearGradient>
    <linearGradient
       inkscape:collect="always"
       xlink:href="#linearGradient3752"
       id="linearGradient3770"
       x1="40.411175"
       y1="946.04364"
       x2="65.14975"
       y2="968.26697"
       gradientUnits="userSpaceOnUse"
       gradientTransform="translate(-103.58779,350.6066)" />
    <linearGradient
       inkscape:collect="always"
       xlink:href="#linearGradient3752-7"
       id="linearGradient3770-1"
       x1="26.269041"
       y1="940.99286"
       x2="116.16245"
       y2="1015.2391"
       gradientUnits="userSpaceOnUse" />
    <linearGradient
       id="linearGradient3752-7">
      <stop
         style="stop-color:#7dd3ec;stop-opacity:1;"
         offset="0"
         id="stop3754-4" />
      <stop
         style="stop-color:#2882b6;stop-opacity:1;"
         offset="1"
         id="stop3756-0" />
    </linearGradient>
    <linearGradient
       inkscape:collect="always"
       xlink:href="#linearGradient3815"
       id="linearGradient3811"
       gradientUnits="userSpaceOnUse"
       gradientTransform="translate(-273.11245,417.72212)"
       x1="73.241135"
       y1="962.20605"
       x2="116.16245"
       y2="1015.2391" />
    <linearGradient
       inkscape:collect="always"
       xlink:href="#linearGradient3752-8"
       id="linearGradient3770-4"
       x1="40.411175"
       y1="946.04364"
       x2="65.14975"
       y2="968.26697"
       gradientUnits="userSpaceOnUse"
       gradientTransform="translate(-179.30208,10.606602)" />
    <linearGradient
       id="linearGradient3752-8">
      <stop
         style="stop-color:#daf4fb;stop-opacity:1;"
         offset="0"
         id="stop3754-8" />
      <stop
         style="stop-color:#96cae8;stop-opacity:1;"
         offset="1"
         id="stop3756-2" />
    </linearGradient>
    <linearGradient
       y2="959.79651"
       x2="100.20619"
       y1="1023.2761"
       x1="26.85733"
       gradientTransform="matrix(1.0205782,0,0,1.0378811,-6.4244347,-45.472703)"
       gradientUnits="userSpaceOnUse"
       id="linearGradient3836"
       xlink:href="#linearGradient4155"
       inkscape:collect="always" />
    <linearGradient
       y2="954.62988"
       x2="51.007614"
       y1="1015.2391"
       x1="115.16246"
       gradientTransform="translate(2.0203124,-3.2829631)"
       gradientUnits="userSpaceOnUse"
       id="linearGradient3836-5"
       xlink:href="#linearGradient3815-5"
       inkscape:collect="always" />
    <linearGradient
       id="linearGradient3815-5">
      <stop
         id="stop3817-1"
         offset="0"
         style="stop-color:#35b5ff;stop-opacity:1;" />
      <stop
         id="stop3819-7"
         offset="1"
         style="stop-color:#b4e3fd;stop-opacity:1;" />
    </linearGradient>
    <linearGradient
       inkscape:collect="always"
       xlink:href="#linearGradient3815-5-2"
       id="linearGradient3912-5"
       gradientUnits="userSpaceOnUse"
       gradientTransform="translate(-61.619299,-659.17054)"
       x1="115.16246"
       y1="1015.2391"
       x2="51.007614"
       y2="954.62988" />
    <linearGradient
       id="linearGradient3815-5-2">
      <stop
         id="stop3817-1-7"
         offset="0"
         style="stop-color:#35b5ff;stop-opacity:1;" />
      <stop
         id="stop3819-7-6"
         offset="1"
         style="stop-color:#b4e3fd;stop-opacity:1;" />
    </linearGradient>
    <linearGradient
       inkscape:collect="always"
       xlink:href="#linearGradient3815-5"
       id="linearGradient3957"
       gradientUnits="userSpaceOnUse"
       gradientTransform="translate(-176.27161,165.91754)"
       x1="115.16246"
       y1="1015.2391"
       x2="51.007614"
       y2="954.62988" />
    <linearGradient
       y2="954.62988"
       x2="51.007614"
       y1="1015.2391"
       x1="115.16246"
       gradientTransform="translate(2.0203124,-3.2829631)"
       gradientUnits="userSpaceOnUse"
       id="linearGradient3836-4"
       xlink:href="#linearGradient3815-2"
       inkscape:collect="always" />
    <linearGradient
       id="linearGradient3815-2">
      <stop
         id="stop3817-3"
         offset="0"
         style="stop-color:#35b5ff;stop-opacity:1;" />
      <stop
         id="stop3819-2"
         offset="1"
         style="stop-color:#b4e3fd;stop-opacity:1;" />
    </linearGradient>
    <linearGradient
       inkscape:collect="always"
       xlink:href="#linearGradient3815-2"
       id="linearGradient3996"
       gradientUnits="userSpaceOnUse"
       gradientTransform="translate(80.023585,123.68399)"
       x1="84.857887"
       y1="998.57153"
       x2="68.68528"
       y2="979.88367" />
    <linearGradient
       inkscape:collect="always"
       xlink:href="#linearGradient3815-2-6"
       id="linearGradient3996-1"
       gradientUnits="userSpaceOnUse"
       gradientTransform="translate(-252.72008,172.6335)"
       x1="84.857887"
       y1="998.57153"
       x2="68.68528"
       y2="979.88367" />
    <linearGradient
       id="linearGradient3815-2-6">
      <stop
         id="stop3817-3-8"
         offset="0"
         style="stop-color:#35b5ff;stop-opacity:1;" />
      <stop
         id="stop3819-2-5"
         offset="1"
         style="stop-color:#b4e3fd;stop-opacity:1;" />
    </linearGradient>
    <linearGradient
       y2="954.62988"
       x2="51.007614"
       y1="1015.2391"
       x1="115.16246"
       gradientTransform="translate(2.0203124,-3.2829631)"
       gradientUnits="userSpaceOnUse"
       id="linearGradient3836-1"
       xlink:href="#linearGradient3815-8"
       inkscape:collect="always" />
    <linearGradient
       id="linearGradient3815-8">
      <stop
         id="stop3817-9"
         offset="0"
         style="stop-color:#35b5ff;stop-opacity:1;" />
      <stop
         id="stop3819-27"
         offset="1"
         style="stop-color:#b4e3fd;stop-opacity:1;" />
    </linearGradient>
    <linearGradient
       y2="954.62988"
       x2="51.007614"
       y1="1015.2391"
       x1="115.16246"
       gradientTransform="translate(166.77483,173.34783)"
       gradientUnits="userSpaceOnUse"
       id="linearGradient4052"
       xlink:href="#linearGradient3815-8"
       inkscape:collect="always" />
    <linearGradient
       y2="954.62988"
       x2="51.007614"
       y1="1015.2391"
       x1="115.16246"
       gradientTransform="matrix(1.2005977,0,0,1.170298,-2.7104698,-190.20578)"
       gradientUnits="userSpaceOnUse"
       id="linearGradient3836-43"
       xlink:href="#linearGradient3815-1"
       inkscape:collect="always" />
    <linearGradient
       id="linearGradient3815-1">
      <stop
         id="stop3817-2"
         offset="0"
         style="stop-color:#35b5ff;stop-opacity:1;" />
      <stop
         id="stop3819-3"
         offset="1"
         style="stop-color:#b4e3fd;stop-opacity:1;" />
    </linearGradient>
    <linearGradient
       y2="954.62988"
       x2="51.007614"
       y1="1015.2391"
       x1="115.16246"
       gradientTransform="matrix(1.2005977,0,0,1.170298,-28.127836,-5.895745)"
       gradientUnits="userSpaceOnUse"
       id="linearGradient4100"
       xlink:href="#linearGradient3815-1"
       inkscape:collect="always" />
    <linearGradient
       y2="954.62988"
       x2="51.007614"
       y1="1015.2391"
       x1="115.16246"
       gradientTransform="matrix(1.175523,0,0,1.2591491,-8.1461331,-282.04891)"
       gradientUnits="userSpaceOnUse"
       id="linearGradient3836-41"
       xlink:href="#linearGradient3815-13"
       inkscape:collect="always" />
    <linearGradient
       id="linearGradient3815-13">
      <stop
         id="stop3817-8"
         offset="0"
         style="stop-color:#35b5ff;stop-opacity:1;" />
      <stop
         id="stop3819-74"
         offset="1"
         style="stop-color:#b4e3fd;stop-opacity:1;" />
    </linearGradient>
    <linearGradient
       y2="945.4447"
       x2="115.97497"
       y1="1007.202"
       x1="64.702385"
       gradientTransform="matrix(0.73437,0,0,0.77693547,83.815394,147.05123)"
       gradientUnits="userSpaceOnUse"
       id="linearGradient4134"
       xlink:href="#linearGradient3815-13"
       inkscape:collect="always" />
    <filter
       inkscape:collect="always"
       id="filter4123"
       x="-0.28803614"
       width="1.5760723"
       y="-0.28796387"
       height="1.5759277">
      <feGaussianBlur
         inkscape:collect="always"
         stdDeviation="14.926872"
         id="feGaussianBlur4125" />
    </filter>
  </defs>
  <sodipodi:namedview
     id="base"
     pagecolor="#ffffff"
     bordercolor="#666666"
     borderopacity="1.0"
     inkscape:pageopacity="0.0"
     inkscape:pageshadow="2"
     inkscape:zoom="0.35"
     inkscape:cx="-295.97097"
     inkscape:cy="-396.39276"
     inkscape:document-units="px"
     inkscape:current-layer="layer1"
     showgrid="false"
     inkscape:window-width="1359"
     inkscape:window-height="882"
     inkscape:window-x="98"
     inkscape:window-y="96"
     inkscape:window-maximized="0" />
  <metadata
     id="metadata7">
    <rdf:RDF>
      <cc:Work
         rdf:about="">
        <dc:format>image/svg+xml</dc:format>
        <dc:type
           rdf:resource="http://purl.org/dc/dcmitype/StillImage" />
        <dc:title></dc:title>
      </cc:Work>
    </rdf:RDF>
  </metadata>
  <g
     inkscape:label="Layer 1"
     inkscape:groupmode="layer"
     id="layer1"
     transform="translate(0,-852.3622)">
    <path
       style="fill:#ffffff;fill-opacity:1;stroke:none;filter:url(#filter4123)"
       d="m 47.296254,890.32209 c -5.57977,0 -10.09375,4.5452 -10.09375,10.125 0,3.1387 1.44212,5.92825 3.6875,7.78125 l 42.1875,42.0625 c 0.84009,-7.42498 6.52042,-13.37237 13.8125,-14.625 l -41.71875,-41.5625 -0.0625,-0.0937 c -1.85305,-2.2454 -4.67389,-3.6875 -7.8125,-3.6875 z m 104.187496,0.0625 c -3.13864,0 -5.95938,1.4421 -7.8125,3.6875 l -41.4375,41.5625 c 7.3591,1.08951 13.13111,6.92267 14.125,14.3125 l 41.5625,-41.65625 c 2.24536,-1.853 3.65625,-4.6739 3.65625,-7.8125 0,-5.5797 -4.51399,-10.09375 -10.09375,-10.09375 z m -68.312496,64.375 -41.875,42 -0.09375,0.0625 c -2.2454,1.853 -3.65625,4.67381 -3.65625,7.81241 0,5.5797 4.51395,10.0938 10.09375,10.0938 3.13863,0 5.92819,-1.411 7.78125,-3.6563 l 42.125,-42.24991 c -7.37992,-0.97238 -13.24802,-6.73242 -14.375,-14.0625 z m 33.124996,0.25 c -1.23757,7.31142 -7.18635,13.00211 -14.625,13.84375 l 42,41.84366 c 1.85305,2.2453 4.64264,3.6875 7.78125,3.6875 5.57976,0 10.09375,-4.514 10.09375,-10.0937 0,-3.1387 -1.41087,-5.95946 -3.65625,-7.81246 l -41.59375,-41.46875 z"
       id="path3820-4"
       inkscape:connector-curvature="0" />
    <path
       style="fill:#000000;fill-opacity:1;stroke:#000000;stroke-width:0.80000001;stroke-miterlimit:4;stroke-opacity:1;stroke-dasharray:none;stroke-dashoffset:0"
       d="m 47.806,890.50615 c -5.579763,0 -10.1,4.5202 -10.1,10.1 0,3.13864 1.429624,5.94694 3.675,7.8 l 44.475,44.35 -44.05,44.175 -0.1,0.075 c -2.245392,1.85304 -3.675,4.66145 -3.675,7.80005 0,5.5797 4.520208,10.1 10.1,10.1 3.138632,0 5.946944,-1.4297 7.8,-3.675 l 44.15,-44.30005 44.075,43.95005 c 1.85305,2.2453 4.66139,3.675 7.8,3.675 5.57976,0 10.1,-4.5203 10.1,-10.1 0,-3.1387 -1.42962,-5.94699 -3.675,-7.80005 l -44.1,-43.95 44.125,-44.25 c 2.24536,-1.85305 3.675,-4.66138 3.675,-7.8 0,-5.57976 -4.52024,-10.1 -10.1,-10.1 -3.13864,0 -5.94688,1.42962 -7.8,3.675 l -44.125,44.275 -44.375,-44.225 -0.075,-0.1 c -1.853049,-2.24539 -4.661383,-3.675 -7.8,-3.675 z"
       id="path3820"
       inkscape:connector-curvature="0" />
  </g>
</svg>
